This is BibTeX, Version 0.99d (TeX Live 2013/Debian)
Capacity: max_strings=35307, hash_size=35307, hash_prime=30011
The top-level auxiliary file: 2017-gravitino-2.aux
The style file: apsrev.bst
Reallocated singl_function (elt_size=4) to 100 items from 50.
Database file #1: lib.bib
Reallocated wiz_functions (elt_size=4) to 6000 items from 3000.
Reallocated singl_function (elt_size=4) to 100 items from 50.
Warning--missing publisher in Drees:2004jm
You've used 90 entries,
            3411 wiz_defined-function locations,
            1762 strings with 25871 characters,
and the built_in function-call counts, 64129 in all, are:
= -- 3693
> -- 2205
< -- 291
+ -- 1794
- -- 536
* -- 8969
:= -- 6915
add.period$ -- 90
call.type$ -- 90
change.case$ -- 362
chr.to.int$ -- 80
cite$ -- 91
duplicate$ -- 5742
empty$ -- 5373
format.name$ -- 1385
if$ -- 12121
int.to.chr$ -- 11
int.to.str$ -- 91
missing$ -- 880
newline$ -- 285
num.names$ -- 270
pop$ -- 1450
preamble$ -- 1
purify$ -- 360
quote$ -- 0
skip$ -- 2376
stack$ -- 0
substring$ -- 2015
swap$ -- 4625
text.length$ -- 249
text.prefix$ -- 0
top$ -- 0
type$ -- 538
warning$ -- 1
while$ -- 262
width$ -- 0
write$ -- 978
(There was 1 warning)
