\relax 
\providecommand\hyper@newdestlabel[2]{}
\providecommand\HyperFirstAtBeginDocument{\AtBeginDocument}
\HyperFirstAtBeginDocument{\ifx\hyper@anchor\@undefined
\global\let\oldcontentsline\contentsline
\gdef\contentsline#1#2#3#4{\oldcontentsline{#1}{#2}{#3}}
\global\let\oldnewlabel\newlabel
\gdef\newlabel#1#2{\newlabelxx{#1}#2}
\gdef\newlabelxx#1#2#3#4#5#6{\oldnewlabel{#1}{{#2}{#3}}}
\AtEndDocument{\ifx\hyper@anchor\@undefined
\let\contentsline\oldcontentsline
\let\newlabel\oldnewlabel
\fi}
\fi}
\global\let\hyper@last\relax 
\gdef\HyperFirstAtBeginDocument#1{#1}
\providecommand\HyField@AuxAddToFields[1]{}
\providecommand\HyField@AuxAddToCoFields[2]{}
\citation{ATLAS:2012ae,Chatrchyan:2012tx}
\citation{Bechtle:2015nua}
\citation{Nilles:1983ge,Drees:2004jm}
\citation{Dine:1981gu,Dine:1981za,Dimopoulos:1981au,Nappi:1982hm,AlvarezGaume:1981wy,Dine:1993yw,Dine:1993qm,Dine:1994vc,Dine:1995ag}
\citation{Pagels:1981ke,Khlopov:1984pf}
\citation{Viel:2005qj}
\citation{Choi:1999xm}
\citation{Moroi:1993mb}
\citation{Cheung:2011nn}
\citation{Benakli:2017whb}
\citation{Giudice:1998bp,Martin:1996zb}
\citation{Draper:2011aa,Ajaib:2012vc}
\citation{Meade:2008wd,Cheung:2007es}
\citation{Knapen:2015qba,Knapen:2016exe}
\citation{Ambrosanio:1996jn,Feng:1997zr,Stump:1996wd,Dimopoulos:1996va,Baer:2000pe,Kim:2011sv,Hiller:2009ii}
\citation{Aad:2015hea,ATLAS:2016hks}
\citation{Aad:2015hea}
\citation{ATLAS:2016hks}
\citation{Caron:2016hib,Drees:2013wra,Conte:2012fm,Papucci:2014rja,Kraml:2013mwa,Bechtle:2017vyu}
\citation{Deutschmann:2017bth}
\citation{Drees:2013wra,Dercks:2016npn}
\citation{Aad:2015hea}
\citation{Aad:2015hea,ATLAS:2016hks}
\citation{Aad:2014tda}
\newlabel{FirstPage}{{}{1}{}{Doc-Start}{}}
\newlabel{FirstPage@cref}{{}{1}}
\@writefile{toc}{\contentsline {section}{\numberline {I}Introduction}{1}{section*.1}}
\newlabel{sec:introduction}{{I}{1}{}{section*.1}{}}
\newlabel{sec:introduction@cref}{{[section][1][]I}{1}}
\citation{Meade:2008wd}
\citation{Buican:2008ws}
\citation{Buican:2008ws}
\citation{Rajaraman:2009ga,Komargodski:2008ax}
\citation{Grajek:2013ola,Byakti:2013ti,Evans:2013kxa,Craig:2012xp,Abdullah:2012tq,Albaid:2012qk,Evans:2012hg,Evans:2011bea,Shadmi:2011hs}
\citation{Krauss:2013jva}
\citation{Ambrosanio:1996jn}
\citation{Feng:2010ij,Dreiner:2011fp}
\citation{Aad:2014gfa}
\citation{Viel:2005qj}
\@writefile{toc}{\contentsline {section}{\numberline {II}General Gauge Mediation Models}{2}{section*.2}}
\newlabel{sec:model}{{II}{2}{}{section*.2}{}}
\newlabel{sec:model@cref}{{[section][2][]II}{2}}
\newlabel{eq:partialwidths}{{II.3}{2}{}{equation.2.3}{}}
\newlabel{eq:partialwidths@cref}{{[equation][3][]II.3}{2}}
\newlabel{eq:kappas}{{II.4}{2}{}{equation.2.4}{}}
\newlabel{eq:kappas@cref}{{[equation][4][]II.4}{2}}
\citation{Porod:2003um,Porod:2011nf,Staub:2017jnp}
\citation{Staub:2011dp}
\citation{Ball:2012cx}
\citation{Ball:2012cx}
\citation{Dercks:2016npn,Kim:2015wza,Drees:2013wra,Tattersall:2016nnx}
\citation{deFavereau:2013fsa}
\citation{Cacciari:2011ma}
\citation{Kim:2016rsd}
\citation{Rolbiecki:2015lsa,Kim:2014noa}
\citation{Dreiner:2012gx,Dreiner:2012sh,Drees:2012dd}
\citation{Aad:2015hea}
\citation{Read:2002hq}
\citation{Aad:2015hea}
\citation{Aad:2014tda}
\citation{Aad:2015jqa}
\citation{Aad:2014qaa}
\citation{Aad:2014pda}
\citation{Aad:2014wea}
\citation{Aad:2014kra}
\citation{Aad:2014nua}
\citation{Aad:2015mia}
\citation{Khachatryan:2014qwa}
\citation{Aad:2015hea}
\citation{Aad:2014tda}
\citation{Aad:2015jqa}
\citation{Aad:2014qaa,Aad:2014nua}
\citation{Aad:2014kra}
\citation{ATLASCollaboration:2016wlb}
\citation{Aad:2015hea}
\citation{ATLAS:2016fks}
\@writefile{toc}{\contentsline {section}{\numberline {III}Recasting the experimental searches}{3}{section*.3}}
\newlabel{sec:recasting}{{III}{3}{}{section*.3}{}}
\newlabel{sec:recasting@cref}{{[section][3][]III}{3}}
\newlabel{eq:r}{{III.5}{3}{}{equation.3.5}{}}
\newlabel{eq:r@cref}{{[equation][5][]III.5}{3}}
\@writefile{lot}{\contentsline {table}{\numberline {I}{\ignorespaces Summary of the most relevant analyses. In addition, we have also taken into account all other searches implemented in {\tt  CheckMATE} for our study. The 8 TeV analyses are referenced by their arXiv number. The middle column denotes the final state topology, and the third column shows the total integrated luminosity.}}{3}{table.1}}
\newlabel{tab:lhc_searches8tev}{{I}{3}{Summary of the most relevant analyses. In addition, we have also taken into account all other searches implemented in {\tt CheckMATE} for our study. The 8 TeV analyses are referenced by their arXiv number. The middle column denotes the final state topology, and the third column shows the total integrated luminosity}{table.1}{}}
\newlabel{tab:lhc_searches8tev@cref}{{[table][1][]I}{3}}
\citation{Aad:2015hea}
\citation{Aad:2014tda}
\citation{Aad:2015jqa}
\citation{Aad:2015hea}
\citation{Aad:2015hea}
\citation{Aad:2014tda}
\citation{Aad:2015hea}
\citation{Aad:2015hea}
\citation{Aad:2014tda}
\@writefile{lot}{\contentsline {table}{\numberline {II}{\ignorespaces For all scenarios, we effectively decouple the scalar sector, the gluinos as well as pseudoscalars from the spectrum while keeping the Higgs mass to 125 GeV. We use $\qopname  \relax o{tan}\beta =10$ throughout except for scenario {\bf  IIb} where we set $\qopname  \relax o{tan}\beta =3$. }}{4}{table.2}}
\newlabel{tab:scan_parameters}{{II}{4}{For all scenarios, we effectively decouple the scalar sector, the gluinos as well as pseudoscalars from the spectrum while keeping the Higgs mass to 125 GeV. We use $\tan \beta =10$ throughout except for scenario {\bf IIb} where we set $\tan \beta =3$}{table.2}{}}
\newlabel{tab:scan_parameters@cref}{{[table][2][]II}{4}}
\@writefile{toc}{\contentsline {section}{\numberline {IV}Numerical Results}{4}{section*.4}}
\newlabel{sec:results}{{IV}{4}{}{section*.4}{}}
\newlabel{sec:results@cref}{{[section][4][]IV}{4}}
\@writefile{toc}{\contentsline {subsection}{\numberline {}Scenario {\bf  I}}{4}{section*.5}}
\citation{Aad:2015hea}
\citation{Aad:2014tda}
\citation{Aad:2015jqa}
\citation{Aad:2015hea}
\citation{Aad:2014tda}
\citation{Aad:2015jqa}
\citation{Aad:2015hea}
\citation{Agashe:2014kda}
\citation{Aad:2015hea,Aad:2014tda}
\citation{Aad:2014tda}
\@writefile{toc}{\contentsline {subsection}{\numberline {}Scenario {\bf  II}}{5}{section*.6}}
\@writefile{lof}{\contentsline {figure}{\numberline {1}{\ignorespaces 95\% confidence level limit on the $M_1$ -- $M_2$ plane from ATLAS and CMS searches performed at the center of mass energy $\sqrt  {s}=8$ TeV. The green, blue and red lines correspond to 95\% C.L. limits from recasting the analyses of Refs.\nobreakspace  {}\cite  {Aad:2015hea}, \cite  {Aad:2014tda} and \cite  {Aad:2015jqa}. For the best exclusion line, we show in dark gray the estimated uncertainty bands. We also show in black dashed the best exclusion line as provided by {\tt  CheckMATE} when considering all implemented searches. Due to the slightly different approach in the limit setting explained in \cref  {sec:recasting}, there can appear small differences with respect to the envelope of the coloured exclusion lines. Here we decoupled the higgsino sector by fixing $\mu =2\nobreakspace  {}$TeV. }}{5}{figure.1}}
\newlabel{fig:anal_mudecoupled}{{1}{5}{95\% confidence level limit on the $M_1$ -- $M_2$ plane from ATLAS and CMS searches performed at the center of mass energy $\sqrt {s}=8$ TeV. The green, blue and red lines correspond to 95\% C.L. limits from recasting the analyses of Refs.~\cite {Aad:2015hea}, \cite {Aad:2014tda} and \cite {Aad:2015jqa}. For the best exclusion line, we show in dark gray the estimated uncertainty bands. We also show in black dashed the best exclusion line as provided by {\tt CheckMATE} when considering all implemented searches. Due to the slightly different approach in the limit setting explained in \cref {sec:recasting}, there can appear small differences with respect to the envelope of the coloured exclusion lines. Here we decoupled the higgsino sector by fixing $\mu =2~$TeV}{figure.1}{}}
\newlabel{fig:anal_mudecoupled@cref}{{[figure][1][]1}{5}}
\citation{Aad:2014tda}
\citation{Aad:2015hea}
\citation{Aad:2015hea}
\citation{Aad:2015jqa}
\citation{Agashe:2014kda}
\citation{Agashe:2014kda}
\citation{Aad:2015hea}
\citation{Aad:2014tda}
\citation{Aad:2015jqa}
\citation{Aad:2014tda}
\@writefile{lof}{\contentsline {figure}{\numberline {2}{\ignorespaces Same as in \cref  {fig:anal_mudecoupled} but in the $M_1$ -- $\mu $ plane using $M_2=2\nobreakspace  {}$TeV.}}{6}{figure.2}}
\newlabel{fig:anal_m2decoupled}{{2}{6}{Same as in \cref {fig:anal_mudecoupled} but in the $M_1$ -- $\mu $ plane using $M_2=2~$TeV}{figure.2}{}}
\newlabel{fig:anal_m2decoupled@cref}{{[figure][2][]2}{6}}
\@writefile{lof}{\contentsline {figure}{\numberline {3}{\ignorespaces Analogue of \cref  {fig:anal_m2decoupled} but using $\qopname  \relax o{tan}\beta =3$ and $\mu <0$.}}{6}{figure.3}}
\newlabel{fig:anal_m2decoupledtb3neg}{{3}{6}{Analogue of \cref {fig:anal_m2decoupled} but using $\tan \beta =3$ and $\mu <0$}{figure.3}{}}
\newlabel{fig:anal_m2decoupledtb3neg@cref}{{[figure][3][]3}{6}}
\@writefile{toc}{\contentsline {subsection}{\numberline {}Scenario III}{6}{section*.7}}
\@writefile{toc}{\contentsline {subsection}{\numberline {}Scenario IV}{6}{section*.8}}
\bibdata{lib}
\bibcite{ATLAS:2012ae}{{1}{2012}{{Aad et~al.}}{{}}}
\bibcite{Chatrchyan:2012tx}{{2}{2012}{{Chatrchyan et~al.}}{{}}}
\bibcite{Bechtle:2015nua}{{3}{2016}{{Bechtle et~al.}}{{}}}
\@writefile{lof}{\contentsline {figure}{\numberline {4}{\ignorespaces Same as in \cref  {fig:anal_mudecoupled} but in the $M_2$ -- $\mu $ plane and $M_1=50\nobreakspace  {}$GeV. Here we show in black also the LEP\nobreakspace  {}II limit which excludes chargino masses below 104\nobreakspace  {}GeV \cite  {Agashe:2014kda}.}}{7}{figure.4}}
\newlabel{fig:anal_lightbino}{{4}{7}{Same as in \cref {fig:anal_mudecoupled} but in the $M_2$ -- $\mu $ plane and $M_1=50~$GeV. Here we show in black also the LEP~II limit which excludes chargino masses below 104~GeV \cite {Agashe:2014kda}}{figure.4}{}}
\newlabel{fig:anal_lightbino@cref}{{[figure][4][]4}{7}}
\@writefile{toc}{\contentsline {section}{\numberline {V}Conclusions}{7}{section*.9}}
\newlabel{sec:conclusions}{{V}{7}{}{section*.9}{}}
\newlabel{sec:conclusions@cref}{{[section][5][]V}{7}}
\@writefile{lof}{\contentsline {figure}{\numberline {5}{\ignorespaces Same as in \cref  {fig:anal_lightbino} but using $M_1=2\nobreakspace  {}$TeV.}}{7}{figure.5}}
\newlabel{fig:anal_heavybino}{{5}{7}{Same as in \cref {fig:anal_lightbino} but using $M_1=2~$TeV}{figure.5}{}}
\newlabel{fig:anal_heavybino@cref}{{[figure][5][]5}{7}}
\@writefile{toc}{\contentsline {section}{\numberline {}References}{7}{section*.10}}
\bibcite{Nilles:1983ge}{{4}{1984}{{Nilles}}{{}}}
\bibcite{Drees:2004jm}{{5}{2004}{{Drees et~al.}}{{Drees, Godbole, and Roy}}}
\bibcite{Dine:1981gu}{{6}{1982}{{Dine and Fischler}}{{}}}
\bibcite{Dine:1981za}{{7}{1981}{{Dine et~al.}}{{Dine, Fischler, and Srednicki}}}
\bibcite{Dimopoulos:1981au}{{8}{1981}{{Dimopoulos and Raby}}{{}}}
\bibcite{Nappi:1982hm}{{9}{1982}{{Nappi and Ovrut}}{{}}}
\bibcite{AlvarezGaume:1981wy}{{10}{1982}{{Alvarez-Gaume et~al.}}{{Alvarez-Gaume, Claudson, and Wise}}}
\bibcite{Dine:1993yw}{{11}{1993}{{Dine and Nelson}}{{}}}
\bibcite{Dine:1993qm}{{12}{1993}{{Dine et~al.}}{{Dine, Leigh, and Kagan}}}
\bibcite{Dine:1994vc}{{13}{1995}{{Dine et~al.}}{{Dine, Nelson, and Shirman}}}
\bibcite{Dine:1995ag}{{14}{1996}{{Dine et~al.}}{{Dine, Nelson, Nir, and Shirman}}}
\bibcite{Pagels:1981ke}{{15}{1982}{{Pagels and Primack}}{{}}}
\bibcite{Khlopov:1984pf}{{16}{1984}{{Khlopov and Linde}}{{}}}
\bibcite{Viel:2005qj}{{17}{2005}{{Viel et~al.}}{{Viel, Lesgourgues, Haehnelt, Matarrese, and Riotto}}}
\bibcite{Choi:1999xm}{{18}{1999}{{Choi et~al.}}{{Choi, Hwang, Kim, and Lee}}}
\bibcite{Moroi:1993mb}{{19}{1993}{{Moroi et~al.}}{{Moroi, Murayama, and Yamaguchi}}}
\bibcite{Cheung:2011nn}{{20}{2011}{{Cheung et~al.}}{{Cheung, Elor, and Hall}}}
\bibcite{Benakli:2017whb}{{21}{2017}{{Benakli et~al.}}{{Benakli, Chen, Dudas, and Mambrini}}}
\bibcite{Giudice:1998bp}{{22}{1999}{{Giudice and Rattazzi}}{{}}}
\bibcite{Martin:1996zb}{{23}{1997}{{Martin}}{{}}}
\bibcite{Draper:2011aa}{{24}{2012}{{Draper et~al.}}{{Draper, Meade, Reece, and Shih}}}
\bibcite{Ajaib:2012vc}{{25}{2012}{{Ajaib et~al.}}{{Ajaib, Gogoladze, Nasir, and Shafi}}}
\bibcite{Meade:2008wd}{{26}{2009}{{Meade et~al.}}{{Meade, Seiberg, and Shih}}}
\bibcite{Cheung:2007es}{{27}{2008}{{Cheung et~al.}}{{Cheung, Fitzpatrick, and Shih}}}
\bibcite{Knapen:2015qba}{{28}{2016}{{Knapen et~al.}}{{Knapen, Redigolo, and Shih}}}
\bibcite{Knapen:2016exe}{{29}{2017}{{Knapen and Redigolo}}{{}}}
\bibcite{Ambrosanio:1996jn}{{30}{1996}{{Ambrosanio et~al.}}{{Ambrosanio, Kane, Kribs, Martin, and Mrenna}}}
\bibcite{Feng:1997zr}{{31}{1998}{{Feng and Moroi}}{{}}}
\bibcite{Stump:1996wd}{{32}{1996}{{Stump et~al.}}{{Stump, Wiest, and Yuan}}}
\bibcite{Dimopoulos:1996va}{{33}{1996}{{Dimopoulos et~al.}}{{Dimopoulos, Thomas, and Wells}}}
\bibcite{Baer:2000pe}{{34}{2000}{{Baer et~al.}}{{Baer, Mercadante, Tata, and Wang}}}
\bibcite{Kim:2011sv}{{35}{2011}{{Kim and Sedello}}{{}}}
\bibcite{Hiller:2009ii}{{36}{2009}{{Hiller et~al.}}{{Hiller, Kim, and Sedello}}}
\bibcite{Aad:2015hea}{{37}{2015{}}{{Aad et~al.}}{{}}}
\bibcite{ATLAS:2016hks}{{38}{2016{}}{{ATLAS}}{{}}}
\bibcite{Caron:2016hib}{{39}{2017}{{Caron et~al.}}{{Caron, Kim, Rolbiecki, Ruiz~de Austri, and Stienen}}}
\bibcite{Drees:2013wra}{{40}{2015}{{Drees et~al.}}{{Drees, Dreiner, Schmeier, Tattersall, and Kim}}}
\bibcite{Conte:2012fm}{{41}{2013}{{Conte et~al.}}{{Conte, Fuks, and Serret}}}
\bibcite{Papucci:2014rja}{{42}{2014}{{Papucci et~al.}}{{Papucci, Sakurai, Weiler, and Zeune}}}
\bibcite{Kraml:2013mwa}{{43}{2014}{{Kraml et~al.}}{{Kraml, Kulkarni, Laa, Lessa, Magerl, Proschofsky-Spindler, and Waltenberger}}}
\bibcite{Bechtle:2017vyu}{{44}{2017}{{Bechtle et~al.}}{{Bechtle, Belkner, Dercks, Hamer, Keller, Kramer, Sarrazin, Schutte-Engel, and Tattersall}}}
\bibcite{Deutschmann:2017bth}{{45}{2017}{{Deutschmann et~al.}}{{Deutschmann, Flacke, and Kim}}}
\bibcite{Dercks:2016npn}{{46}{2016}{{Dercks et~al.}}{{Dercks, Desai, Kim, Rolbiecki, Tattersall, and Weber}}}
\bibcite{Aad:2014tda}{{47}{2015{}}{{Aad et~al.}}{{}}}
\bibcite{Buican:2008ws}{{48}{2009}{{Buican et~al.}}{{Buican, Meade, Seiberg, and Shih}}}
\bibcite{Rajaraman:2009ga}{{49}{2009}{{Rajaraman et~al.}}{{Rajaraman, Shirman, Smidt, and Yu}}}
\bibcite{Komargodski:2008ax}{{50}{2009}{{Komargodski and Seiberg}}{{}}}
\bibcite{Grajek:2013ola}{{51}{2013}{{Grajek et~al.}}{{Grajek, Mariotti, and Redigolo}}}
\bibcite{Byakti:2013ti}{{52}{2013}{{Byakti and Ray}}{{}}}
\bibcite{Evans:2013kxa}{{53}{2013}{{Evans and Shih}}{{}}}
\bibcite{Craig:2012xp}{{54}{2013}{{Craig et~al.}}{{Craig, Knapen, Shih, and Zhao}}}
\bibcite{Abdullah:2012tq}{{55}{2013}{{Abdullah et~al.}}{{Abdullah, Galon, Shadmi, and Shirman}}}
\bibcite{Albaid:2012qk}{{56}{2013}{{Albaid and Babu}}{{}}}
\bibcite{Evans:2012hg}{{57}{2012}{{Evans et~al.}}{{Evans, Ibe, Shirai, and Yanagida}}}
\bibcite{Evans:2011bea}{{58}{2011}{{Evans et~al.}}{{Evans, Ibe, and Yanagida}}}
\bibcite{Shadmi:2011hs}{{59}{2012}{{Shadmi and Szabo}}{{}}}
\bibcite{Krauss:2013jva}{{60}{2013}{{Krauss et~al.}}{{Krauss, Porod, and Staub}}}
\bibcite{Feng:2010ij}{{61}{2010}{{Feng et~al.}}{{Feng, Kamionkowski, and Lee}}}
\bibcite{Dreiner:2011fp}{{62}{2012{}}{{Dreiner et~al.}}{{Dreiner, Hanussek, Kim, and Sarkar}}}
\bibcite{Aad:2014gfa}{{63}{2014{}}{{Aad et~al.}}{{}}}
\bibcite{Porod:2003um}{{64}{2003}{{Porod}}{{}}}
\bibcite{Porod:2011nf}{{65}{2012}{{Porod and Staub}}{{}}}
\bibcite{Staub:2017jnp}{{66}{2017}{{Staub and Porod}}{{}}}
\bibcite{Staub:2011dp}{{67}{2012}{{Staub et~al.}}{{Staub, Ohl, Porod, and Speckner}}}
\bibcite{Ball:2012cx}{{68}{2013}{{Ball et~al.}}{{}}}
\bibcite{Kim:2015wza}{{69}{2015}{{Kim et~al.}}{{Kim, Schmeier, Tattersall, and Rolbiecki}}}
\bibcite{Tattersall:2016nnx}{{70}{2016}{{Tattersall et~al.}}{{Tattersall, Dercks, Desai, Kim, Poncza, Rolbiecki, and Weber}}}
\bibcite{deFavereau:2013fsa}{{71}{2014}{{de~Favereau et~al.}}{{de~Favereau, Delaere, Demin, Giammanco, Lemaître, Mertens, and Selvaggi}}}
\bibcite{Cacciari:2011ma}{{72}{2012}{{Cacciari et~al.}}{{Cacciari, Salam, and Soyez}}}
\bibcite{Kim:2016rsd}{{73}{2016}{{Kim et~al.}}{{Kim, Rolbiecki, Ruiz, Tattersall, and Weber}}}
\bibcite{Rolbiecki:2015lsa}{{74}{2015}{{Rolbiecki and Tattersall}}{{}}}
\bibcite{Kim:2014noa}{{75}{2015}{{Kim and Ray}}{{}}}
\bibcite{Dreiner:2012gx}{{76}{2012{}}{{Dreiner et~al.}}{{Dreiner, Kramer, and Tattersall}}}
\bibcite{Dreiner:2012sh}{{77}{2013}{{Dreiner et~al.}}{{Dreiner, Krämer, and Tattersall}}}
\bibcite{Drees:2012dd}{{78}{2012}{{Drees et~al.}}{{Drees, Hanussek, and Kim}}}
\bibcite{Read:2002hq}{{79}{2002}{{Read}}{{}}}
\bibcite{Aad:2015jqa}{{80}{2015{}}{{Aad et~al.}}{{}}}
\bibcite{Aad:2014qaa}{{81}{2014{}}{{Aad et~al.}}{{}}}
\bibcite{Aad:2014pda}{{82}{2014{}}{{Aad et~al.}}{{}}}
\bibcite{Aad:2014wea}{{83}{2014{}}{{Aad et~al.}}{{}}}
\bibcite{Aad:2014kra}{{84}{2014{}}{{Aad et~al.}}{{}}}
\bibcite{Aad:2014nua}{{85}{2014{}}{{Aad et~al.}}{{}}}
\bibcite{Aad:2015mia}{{86}{2015{}}{{Aad et~al.}}{{}}}
\bibcite{Khachatryan:2014qwa}{{87}{2014}{{Khachatryan et~al.}}{{}}}
\bibcite{ATLASCollaboration:2016wlb}{{88}{2016}{{Aaboud et~al.}}{{}}}
\bibcite{ATLAS:2016fks}{{89}{2016{}}{{ATLAS}}{{}}}
\bibcite{Agashe:2014kda}{{90}{2014}{{Olive et~al.}}{{}}}
\global \chardef \firstnote@num\z@ \relax 
\bibstyle{apsrev}
\newlabel{LastPage}{{}{9}{}{page.9}{}}
\newlabel{LastBibItem}{{90}{9}{}{section*.10}{}}
\newlabel{LastBibItem@cref}{{[section][5][]V}{9}}
