\relax 
\providecommand\hyper@newdestlabel[2]{}
\citation{ATLAS:2012ae,Chatrchyan:2012tx}
\citation{Bechtle:2015nua}
\citation{Nilles:1983ge,Drees:2004jm}
\citation{Dine:1981gu,Dine:1981za,Dimopoulos:1981au,Nappi:1982hm,AlvarezGaume:1981wy,Dine:1993yw,Dine:1993qm,Dine:1994vc,Dine:1995ag}
\citation{Giudice:1998bp,Martin:1996zb}
\citation{Draper:2011aa,Ajaib:2012vc}
\citation{Meade:2008wd,Cheung:2007es}
\citation{Knapen:2015qba,Knapen:2016exe}
\citation{Aad:2015hea,ATLAS:2016hks}
\citation{Aad:2015hea}
\citation{ATLAS:2016hks}
\citation{Aad:2014tda}
\citation{Caron:2016hib,Drees:2013wra,Conte:2012fm,Papucci:2014rja,Kraml:2013mwa}
\citation{Deutschmann:2017bth,Kim:2014noa,Kim:2014eva}
\@setckpt{sections/introduction}{
\setcounter{page}{1}
\setcounter{equation}{0}
\setcounter{enumi}{0}
\setcounter{enumii}{0}
\setcounter{enumiii}{0}
\setcounter{enumiv}{0}
\setcounter{footnote}{0}
\setcounter{mpfootnote}{0}
\setcounter{linecount}{0}
\setcounter{affil}{2}
\setcounter{part}{0}
\setcounter{section}{1}
\setcounter{subsection}{0}
\setcounter{subsubsection}{0}
\setcounter{paragraph}{0}
\setcounter{subparagraph}{0}
\setcounter{figure}{0}
\setcounter{table}{0}
\setcounter{NAT@ctr}{0}
\setcounter{parentequation}{0}
\setcounter{Item}{0}
\setcounter{Hfootnote}{0}
\setcounter{bookmark@seq@number}{1}
\setcounter{section@level}{0}
}
