This is BibTeX, Version 0.99d (TeX Live 2013/Debian)
Capacity: max_strings=35307, hash_size=35307, hash_prime=30011
The top-level auxiliary file: 2017-gravitino_revision.aux
The style file: apsrev.bst
Reallocated singl_function (elt_size=4) to 100 items from 50.
Database file #1: lib.bib
Reallocated wiz_functions (elt_size=4) to 6000 items from 3000.
Reallocated singl_function (elt_size=4) to 100 items from 50.
Warning--missing publisher in Drees:2004jm
You've used 94 entries,
            3411 wiz_defined-function locations,
            1785 strings with 26672 characters,
and the built_in function-call counts, 67256 in all, are:
= -- 3854
> -- 2345
< -- 308
+ -- 1914
- -- 570
* -- 9415
:= -- 7238
add.period$ -- 94
call.type$ -- 94
change.case$ -- 378
chr.to.int$ -- 84
cite$ -- 95
duplicate$ -- 6021
empty$ -- 5623
format.name$ -- 1465
if$ -- 12697
int.to.chr$ -- 11
int.to.str$ -- 95
missing$ -- 919
newline$ -- 297
num.names$ -- 282
pop$ -- 1536
preamble$ -- 1
purify$ -- 376
quote$ -- 0
skip$ -- 2490
stack$ -- 0
substring$ -- 2088
swap$ -- 4847
text.length$ -- 266
text.prefix$ -- 0
top$ -- 0
type$ -- 562
warning$ -- 1
while$ -- 272
width$ -- 0
write$ -- 1018
(There was 1 warning)
